id;nom;dossierId;vCreation;vMaj
1;Île-de-France;Paris;13;107
2;Occitanie;Occitanie;102;108
3;Hauts-de-France;HautsFrance;13;108
4;Normandie;Normandie;13;108
5;Pays de la Loire;PaysLoire;102;108
6;Provence-Alpes-Côte d'Azur;PACA;102;108
7;Bourgogne-Franche-Comté;BourgogneFC;13;108
8;Nouvelle-Aquitaine;NAquitaine;102;108
9;Grand Est;GrandEst;102;108
10;Centre-Val de Loire;CentreVdL;13;108
11;Auvergne-Rhône-Alpes;AuvergneRA;102;108
12;Bretagne;Bretagne;102;108
