idGare;idLigne;ordre;PDLFond;PDLPoint;vCreation;vMaj;vSuppression
SNCF01086;SNCF_CentreVdL_U;0;0;0;106;0;0
SNCF01087;SNCF_CentreVdL_U;0;0;0;106;0;0
SNCF01317;SNCF_CentreVdL_U;0;0;0;106;0;0
SNCF01319;SNCF_CentreVdL_U;0;0;0;106;0;0
SNCF01324;SNCF_CentreVdL_U;0;0;0;106;0;0
SNCF01333;SNCF_CentreVdL_U;0;0;0;106;0;0
SNCF01364;SNCF_CentreVdL_U;0;0;0;106;0;0
SNCF01372;SNCF_CentreVdL_U;0;0;0;106;0;0
SNCF01378;SNCF_CentreVdL_U;0;0;0;106;0;0
SNCF01379;SNCF_CentreVdL_U;0;0;0;106;0;0
SNCF01381;SNCF_CentreVdL_U;0;0;0;106;0;0
SNCF01383;SNCF_CentreVdL_U;0;0;0;106;0;0
SNCF01392;SNCF_CentreVdL_U;0;0;0;106;0;0
SNCF01396;SNCF_CentreVdL_U;0;0;0;106;0;0
SNCF01398;SNCF_CentreVdL_U;0;0;0;106;0;0
SNCF01400;SNCF_CentreVdL_U;0;0;0;106;0;0
SNCF01404;SNCF_CentreVdL_U;0;0;0;106;0;0
SNCF01405;SNCF_CentreVdL_U;0;0;0;106;0;0
SNCF01406;SNCF_CentreVdL_U;0;0;0;106;0;0
SNCF01410;SNCF_CentreVdL_U;0;0;0;106;0;0
SNCF01411;SNCF_CentreVdL_U;0;0;0;106;0;0
SNCF01416;SNCF_CentreVdL_U;0;0;0;106;0;0
SNCF01424;SNCF_CentreVdL_U;0;0;0;106;0;0
SNCF01425;SNCF_CentreVdL_U;0;0;0;106;0;0
SNCF01427;SNCF_CentreVdL_U;0;0;0;106;0;0
411446;SNCF_CentreVdL_U;0;0;0;106;0;0
SNCF01484;SNCF_CentreVdL_U;0;0;0;106;0;0
SNCF01489;SNCF_CentreVdL_U;0;0;0;106;0;0
SNCF01082;SNCF_CentreVdL_U;0;0;0;106;0;0
SNCF01084;SNCF_CentreVdL_U;0;0;0;106;0;0
SNCF01090;SNCF_CentreVdL_U;0;0;0;106;0;0
SNCF01313;SNCF_CentreVdL_U;0;0;0;106;0;0
SNCF01320;SNCF_CentreVdL_U;0;0;0;106;0;0
SNCF01323;SNCF_CentreVdL_U;0;0;0;106;0;0
SNCF01326;SNCF_CentreVdL_U;0;0;0;106;0;0
SNCF01332;SNCF_CentreVdL_U;0;0;0;106;0;0
SNCF01334;SNCF_CentreVdL_U;0;0;0;106;0;0
SNCF01335;SNCF_CentreVdL_U;0;0;0;106;0;0
SNCF01337;SNCF_CentreVdL_U;0;0;0;106;0;0
SNCF01340;SNCF_CentreVdL_U;0;0;0;106;0;0
SNCF01362;SNCF_CentreVdL_U;0;0;0;106;0;0
SNCF01366;SNCF_CentreVdL_U;0;0;0;106;0;0
SNCF01368;SNCF_CentreVdL_U;0;0;0;106;0;0
SNCF01373;SNCF_CentreVdL_U;0;0;0;106;0;0
SNCF01375;SNCF_CentreVdL_U;0;0;0;106;0;0
SNCF01384;SNCF_CentreVdL_U;0;0;0;106;0;0
SNCF01387;SNCF_CentreVdL_U;0;0;0;106;0;0
SNCF01390;SNCF_CentreVdL_U;0;0;0;106;0;0
SNCF01391;SNCF_CentreVdL_U;0;0;0;106;0;0
SNCF01395;SNCF_CentreVdL_U;0;0;0;106;0;0
SNCF01402;SNCF_CentreVdL_U;0;0;0;106;0;0
SNCF01412;SNCF_CentreVdL_U;0;0;0;106;0;0
SNCF01414;SNCF_CentreVdL_U;0;0;0;106;0;0
SNCF01420;SNCF_CentreVdL_U;0;0;0;106;0;0
SNCF01421;SNCF_CentreVdL_U;0;0;0;106;0;0
SNCF01422;SNCF_CentreVdL_U;0;0;0;106;0;0
SNCF01423;SNCF_CentreVdL_U;0;0;0;106;0;0
SNCF01481;SNCF_CentreVdL_U;0;0;0;106;0;0
SNCF01491;SNCF_CentreVdL_U;0;0;0;106;0;0
SNCF01492;SNCF_CentreVdL_U;0;0;0;106;0;0
SNCF03075;SNCF_CentreVdL_U;0;0;0;106;0;0
SNCF01918;SNCF_CentreVdL_U;0;0;0;106;0;0
SNCF01924;SNCF_CentreVdL_U;0;0;0;106;0;0
SNCF01931;SNCF_CentreVdL_U;0;0;0;106;0;0
SNCF01932;SNCF_CentreVdL_U;0;0;0;106;0;0
SNCF00717;SNCF_CentreVdL_U;0;0;0;106;0;0
411485;SNCF_CentreVdL_U;0;0;0;106;0;0
SNCF00756;SNCF_CentreVdL_U;0;0;0;106;0;0
SNCF01919;SNCF_CentreVdL_U;0;0;0;106;0;0
411511;SNCF_CentreVdL_U;0;0;0;106;0;0
411488;SNCF_CentreVdL_U;0;0;0;106;0;0
SNCF01083;SNCF_CentreVdL_U;0;0;0;106;0;0
SNCF01085;SNCF_CentreVdL_U;0;0;0;106;0;0
SNCF01311;SNCF_CentreVdL_U;0;0;0;106;0;0
SNCF01314;SNCF_CentreVdL_U;0;0;0;106;0;0
SNCF01315;SNCF_CentreVdL_U;0;0;0;106;0;0
SNCF01327;SNCF_CentreVdL_U;0;0;0;106;0;0
SNCF01329;SNCF_CentreVdL_U;0;0;0;106;0;0
SNCF01330;SNCF_CentreVdL_U;0;0;0;106;0;0
SNCF01338;SNCF_CentreVdL_U;0;0;0;106;0;0
SNCF01339;SNCF_CentreVdL_U;0;0;0;106;0;0
SNCF01369;SNCF_CentreVdL_U;0;0;0;106;0;0
SNCF01377;SNCF_CentreVdL_U;0;0;0;106;0;0
SNCF01382;SNCF_CentreVdL_U;0;0;0;106;0;0
SNCF01389;SNCF_CentreVdL_U;0;0;0;106;0;0
SNCF01399;SNCF_CentreVdL_U;0;0;0;106;0;0
SNCF01401;SNCF_CentreVdL_U;0;0;0;106;0;0
SNCF01419;SNCF_CentreVdL_U;0;0;0;106;0;0
SNCF01426;SNCF_CentreVdL_U;0;0;0;106;0;0
411443;SNCF_CentreVdL_U;0;0;0;106;0;0
59049;SNCF_CentreVdL_U;0;0;0;106;0;0
SNCF01476;SNCF_CentreVdL_U;0;0;0;106;0;0
SNCF01478;SNCF_CentreVdL_U;0;0;0;106;0;0
SNCF01480;SNCF_CentreVdL_U;0;0;0;106;0;0
SNCF01483;SNCF_CentreVdL_U;0;0;0;106;0;0
SNCF01487;SNCF_CentreVdL_U;0;0;0;106;0;0
SNCF01488;SNCF_CentreVdL_U;0;0;0;106;0;0
SNCF01493;SNCF_CentreVdL_U;0;0;0;106;0;0
SNCF02200;SNCF_CentreVdL_U;0;0;0;106;0;0
SNCF01920;SNCF_CentreVdL_U;0;0;0;106;0;0
SNCF01921;SNCF_CentreVdL_U;0;0;0;106;0;0
SNCF01922;SNCF_CentreVdL_U;0;0;0;106;0;0
SNCF01923;SNCF_CentreVdL_U;0;0;0;106;0;0
SNCF01928;SNCF_CentreVdL_U;0;0;0;106;0;0
411498;SNCF_CentreVdL_U;0;0;0;106;0;0
411501;SNCF_CentreVdL_U;0;0;0;106;0;0
411492;SNCF_CentreVdL_U;0;0;0;106;0;0
411495;SNCF_CentreVdL_U;0;0;0;106;0;0
SNCF01925;SNCF_CentreVdL_U;0;0;0;106;0;0
SNCF01929;SNCF_CentreVdL_U;0;0;0;106;0;0
SNCF01930;SNCF_CentreVdL_U;0;0;0;106;0;0
411504;SNCF_CentreVdL_U;0;0;0;106;0;0
59302;SNCF_CentreVdL_U;0;0;0;106;0;0
SNCF01938;SNCF_CentreVdL_U;0;0;0;106;0;0
411507;SNCF_CentreVdL_U;0;0;0;106;0;0
SNCF01081;SNCF_CentreVdL_U;0;0;0;106;0;0
SNCF01088;SNCF_CentreVdL_U;0;0;0;106;0;0
SNCF01089;SNCF_CentreVdL_U;0;0;0;106;0;0
SNCF01307;SNCF_CentreVdL_U;0;0;0;106;0;0
SNCF01308;SNCF_CentreVdL_U;0;0;0;106;0;0
SNCF01309;SNCF_CentreVdL_U;0;0;0;106;0;0
SNCF01310;SNCF_CentreVdL_U;0;0;0;106;0;0
SNCF01316;SNCF_CentreVdL_U;0;0;0;106;0;0
SNCF01325;SNCF_CentreVdL_U;0;0;0;106;0;0
SNCF01328;SNCF_CentreVdL_U;0;0;0;106;0;0
SNCF01336;SNCF_CentreVdL_U;0;0;0;106;0;0
SNCF01363;SNCF_CentreVdL_U;0;0;0;106;0;0
SNCF01370;SNCF_CentreVdL_U;0;0;0;106;0;0
SNCF01374;SNCF_CentreVdL_U;0;0;0;106;0;0
SNCF01376;SNCF_CentreVdL_U;0;0;0;106;0;0
SNCF01393;SNCF_CentreVdL_U;0;0;0;106;0;0
SNCF01397;SNCF_CentreVdL_U;0;0;0;106;0;0
SNCF01407;SNCF_CentreVdL_U;0;0;0;106;0;0
SNCF01408;SNCF_CentreVdL_U;0;0;0;106;0;0
SNCF01409;SNCF_CentreVdL_U;0;0;0;106;0;0
SNCF01413;SNCF_CentreVdL_U;0;0;0;106;0;0
SNCF01415;SNCF_CentreVdL_U;0;0;0;106;0;0
SNCF01428;SNCF_CentreVdL_U;0;0;0;106;0;0
411449;SNCF_CentreVdL_U;0;0;0;106;0;0
SNCF01482;SNCF_CentreVdL_U;0;0;0;106;0;0
SNCF01486;SNCF_CentreVdL_U;0;0;0;106;0;0
SNCF01490;SNCF_CentreVdL_U;0;0;0;106;0;0
411482;SNCF_CentreVdL_U;0;0;0;106;0;0
58955;SNCF_CentreVdL_U;0;0;0;106;0;0
SNCF01312;SNCF_CentreVdL_U;0;0;0;106;0;0
SNCF01318;SNCF_CentreVdL_U;0;0;0;106;0;0
SNCF01321;SNCF_CentreVdL_U;0;0;0;106;0;0
SNCF01322;SNCF_CentreVdL_U;0;0;0;106;0;0
SNCF01331;SNCF_CentreVdL_U;0;0;0;106;0;0
SNCF01365;SNCF_CentreVdL_U;0;0;0;106;0;0
SNCF01371;SNCF_CentreVdL_U;0;0;0;106;0;0
SNCF01380;SNCF_CentreVdL_U;0;0;0;106;0;0
SNCF01385;SNCF_CentreVdL_U;0;0;0;106;0;0
SNCF00757;SNCF_CentreVdL_U;0;0;0;106;0;0
SNCF01386;SNCF_CentreVdL_U;0;0;0;106;0;0
SNCF01388;SNCF_CentreVdL_U;0;0;0;106;0;0
SNCF01394;SNCF_CentreVdL_U;0;0;0;106;0;0
SNCF01403;SNCF_CentreVdL_U;0;0;0;106;0;0
SNCF01417;SNCF_CentreVdL_U;0;0;0;106;0;0
SNCF01418;SNCF_CentreVdL_U;0;0;0;106;0;0
