idExterne;nom;exploitant;latitude;longitude;couleur;couleurEvolution;vCreation;vMaj;vSuppression
SNCF02318;Besançon Franche-Comté TGV;SNCF;47.307361058531725;5.953195095062256;3;5;102;0;0
SNCF01432;Nevers le Banlay;SNCF;47.0068974;3.1636746;7;2;102;0;0
SNCF00498;Romanèche-Thorins;SNCF;46.1763913;4.7421014;4;5;102;0;0
SNCF00504;Fleurville - Pont-de-Vaux;SNCF;46.4509279;4.8840722;5;6;102;0;0
SNCF00505;Tournus;SNCF;46.566680;4.906647;6;5;102;0;0
SNCF00506;Sennecey-le-Grand;SNCF;46.6406445;4.874316;7;0;102;0;0
SNCF02746;Aillevillers;SNCF;47.9138876;6.3372988;1;5;102;0;0
SNCF02747;Luxeuil-les-Bains;SNCF;47.8148606;6.3726593;2;3;102;0;0
SNCF02748;Champagney;SNCF;47.7031399;6.7012773;3;5;102;0;0
SNCF02749;Ronchamp;SNCF;47.6990308;6.6232791;4;7;102;0;0
SNCF02750;Lure;SNCF;47.683269;6.4925787;5;1;102;0;0
SNCF02753;L'Isle-sur-le-Doubs;SNCF;47.4473777;6.5812614;6;1;102;0;0
SNCF02759;Petit-Croix;SNCF;47.6101045;6.9947414;0;3;102;0;0
SNCF02762;Bas Évette;SNCF;47.6810089;6.8068494;1;3;102;0;0
SNCF00503;Senozan;SNCF;46.3921451;4.8710626;5;4;102;0;0
SNCF00600;Gilley;SNCF;47.0500626;6.4925676;6;4;102;0;0
SNCF00607;Baume-les-Dames;SNCF;47.353937;6.359603;7;6;102;0;0
SNCF00611;Roche-lez-Beaupré;SNCF;47.2762881;6.1109651;0;1;102;0;0
SNCF00614;Saint-Vit;SNCF;47.183507;5.809057;1;2;102;0;0
SNCF00619;Lons-le-Saunier;SNCF;46.668580;5.551108;2;1;102;0;0
SNCF00631;Morez;SNCF;46.5262166;6.023578;3;0;102;0;0
SNCF00642;Is-sur-Tille;SNCF;47.520454;5.129481;4;0;102;0;0
SNCF00650;Saint-Jean-de-Losne;SNCF;47.0997302;5.2441226;5;0;102;0;0
SNCF00675;Mâlain;SNCF;47.3270025;4.8105362;6;4;102;0;0
SNCF00676;Dijon;SNCF;47.323370;5.027208;7;4;102;0;0
SNCF00688;Châtel-Censoir;SNCF;47.5377695;3.6350455;0;6;102;0;0
SNCF00695;Decize;SNCF;46.837362;3.467274;1;7;102;0;0
SNCF00712;La Charité-sur-Loire;SNCF;47.179914;3.023883;3;7;102;0;0
SNCF00716;Cosne-sur-Loire;SNCF;47.413996;2.931981;4;3;102;0;0
SNCF00731;Autun;SNCF;46.9548746;4.2929079;6;3;102;0;0
SNCF00744;Mesvres;SNCF;46.862799;4.2449659;7;6;102;0;0
SNCF00769;Voutenay;SNCF;47.5613477;3.7803454;2;5;102;0;0
SNCF00776;Champs - Saint-Bris;SNCF;47.7388182;3.6034756;3;6;102;0;0
SNCF00780;Chemilly - Appoigny;SNCF;47.8972366;3.5543936;4;7;102;0;0
411473;Saint-Julien-du-Sault;SNCF;48.0266866323;3.30256453785;7;4;13;104;0
SNCF00602;Le Valdahon;SNCF;47.149750;6.342275;7;2;102;0;0
SNCF00608;Laissey;SNCF;47.298723;6.23304;0;7;102;0;0
SNCF00612;Orchamps;SNCF;47.1500962;5.659147;1;4;102;0;0
SNCF00616;Franois;SNCF;47.2273609;5.937498;2;1;102;0;0
SNCF00626;Torpes - Boussières;SNCF;47.1637546;5.8887804;3;6;102;0;0
SNCF00634;La Chaumusse - Fort-du-Plasne;SNCF;46.6048753;5.9613342;4;1;102;0;0
SNCF00639;Frasne;SNCF;46.857596;6.157767;5;3;102;0;0
SNCF00643;Gemeaux;SNCF;47.478542;5.1293074;6;5;102;0;0
SNCF00654;Santenay les Bains;SNCF;46.9106752;4.7017523;7;1;102;0;0
SNCF00658;Beaune;SNCF;47.023053;4.848379;0;6;102;0;0
SNCF00667;Genlis;SNCF;47.244579;5.223406;1;7;102;0;0
SNCF00677;Dijon Porte Neuve;SNCF;47.322806;5.054872;2;3;102;0;0
SNCF00679;Longecourt;SNCF;47.1937936;5.1346952;3;5;102;0;0
SNCF00691;Flez-Cuzy - Tannay;SNCF;47.3630583;3.6149926;4;6;102;0;0
SNCF00707;Saint-Pierre-le-Moûtier;SNCF;46.7932373;3.1117427;6;5;102;0;0
SNCF00709;Fourchambault;SNCF;47.0189684;3.0873673;7;4;102;0;0
SNCF00714;Pouilly-sur-Loire;SNCF;47.2821696;2.9660634;0;1;102;0;0
SNCF00721;Chauffailles;SNCF;46.2074552;4.3454278;1;5;102;0;0
SNCF00728;Montceau-les-Mines;SNCF;46.6706636;4.3610264;2;4;102;0;0
SNCF00740;Montchanin;SNCF;46.7592649;4.4814867;3;5;102;0;0
SNCF00742;Saint-Symphorien-de-Marmagne;SNCF;46.8442215;4.3377542;4;0;102;0;0
SNCF00743;Broye;SNCF;46.8619444;4.2960996;5;2;102;0;0
SNCF00748;Les Perrières;SNCF;47.0055213;3.1467144;6;3;102;0;0
SNCF00751;La Marche;SNCF;47.1396975;3.0395468;7;0;102;0;0
SNCF00774;Cravant - Bazarnes;SNCF;47.6785079;3.6811741;1;3;102;0;0
411479;Laroche - Migennes;SNCF;47.961118247;3.51433646502;7;2;13;104;0
411461;Champigny;SNCF;48.3240522735;3.13113953462;3;6;13;104;0
SNCF03094;Joncherey;SNCF;47.52620;6.99880;2;3;102;0;0
SNCF02319;Belfort - Montbéliard TGV;SNCF;47.585937;6.897687;4;5;102;0;0
SNCF01998;Morre;SNCF;47.2259417;6.0673029;6;3;102;0;0
SNCF02107;Champagnole Paul-Émile Victor;SNCF;46.742483;5.9198128;5;2;102;0;0
SNCF02751;Vesoul;SNCF;47.6177734;6.151926;7;5;102;0;0
SNCF02754;Colombier-Fontaine;SNCF;47.4554849;6.6890071;0;2;102;0;0
SNCF02756;Montbéliard;SNCF;47.5105086;6.8013763;1;4;102;0;0
SNCF02752;Clerval;SNCF;47.3966577;6.4920574;5;4;102;0;0
SNCF02755;Voujeaucourt;SNCF;47.4789729;6.7699667;6;2;102;0;0
SNCF02757;Héricourt;SNCF;47.5729701;6.7691977;7;0;102;0;0
SNCF02763;Belfort;SNCF;47.633284;6.853956;0;7;102;0;0
SNCF03093;Grandvillars;SNCF;47.53763;6.97850;1;5;102;0;0
SNCF00373;Molinges;SNCF;46.3570706;5.7682135;1;4;102;0;0
SNCF00499;Pontanevaux;SNCF;46.2130321;4.7728891;3;6;102;0;0
SNCF00507;Chalon-sur-Saône;SNCF;46.781612;4.843454;4;7;102;0;0
SNCF03091;Danjoutin;SNCF;47.61750;6.86919;7;0;102;0;0
SNCF03092;Delle;SNCF;47.50593;7.00962;0;5;102;0;0
SNCF00372;Saint-Claude;SNCF;46.3899539;5.8603471;5;1;102;0;0
SNCF00501;Mâcon Loché TGV;SNCF;46.282884;4.778876;2;1;102;0;0
SNCF00502;Mâcon;SNCF;46.302572;4.824887;3;0;102;0;0
SNCF00595;Montbarrey;SNCF;47.0359922;5.6366081;6;0;102;0;0
SNCF00601;Avoudrey;SNCF;47.1298359;6.434573;7;2;102;0;0
SNCF00604;L'Hôpital-du-Grosbois;SNCF;47.1691016;6.2130861;0;5;102;0;0
SNCF00609;Deluz;SNCF;47.2925132;6.199733;1;6;102;0;0
SNCF00615;Dannemarie - Velesmes;SNCF;47.2038599;5.8738348;2;7;102;0;0
SNCF00617;Saint-Amour;SNCF;46.4338244;5.3341853;3;6;102;0;0
SNCF00620;Domblans - Voiteur;SNCF;46.7627809;5.5977462;4;6;102;0;0
SNCF00629;Besançon Mouillère;SNCF;47.240372;6.033910;5;7;102;0;0
SNCF00636;Champagnole;SNCF;46.7492981;5.9100314;6;1;102;0;0
SNCF00647;Mervans;SNCF;46.7988928;5.1794099;7;6;102;0;0
SNCF00651;Brazey-en-Plaine;SNCF;47.1314549;5.2121276;0;3;102;0;0
SNCF00653;Saulon;SNCF;47.224035;5.1045991;1;7;102;0;0
SNCF00661;Vougeot - Gilly-lès-Cîteaux;SNCF;47.1755556;4.9715685;2;5;102;0;0
SNCF00596;Arc-et-Senans;SNCF;47.0303516;5.7767843;6;3;102;0;0
SNCF00598;Morteau;SNCF;47.053727;6.604653;7;6;102;0;0
SNCF00599;Le Valdahon Camp Militaire;SNCF;47.1510452;6.3148621;0;2;102;0;0
SNCF00605;Mamirolle;SNCF;47.1998712;6.1617411;1;2;102;0;0
SNCF00606;Saône;SNCF;47.2097669;6.1013089;2;7;102;0;0
SNCF00613;Ranchot;SNCF;47.1525633;5.7246607;3;2;102;0;0
SNCF00618;Cousance;SNCF;46.5353569;5.3868216;4;7;102;0;0
SNCF00621;Saint-Lothain;SNCF;46.8231806;5.6439849;5;2;102;0;0
SNCF00622;Poligny;SNCF;46.8443393;5.7001051;6;5;102;0;0
SNCF00623;Arbois;SNCF;46.912509;5.7648273;7;5;102;0;0
SNCF00624;Liesle;SNCF;47.0587683;5.8208121;0;6;102;0;0
SNCF00625;Byans;SNCF;47.1185334;5.8520589;1;6;102;0;0
SNCF00633;Saint-Laurent-en-Grandvaux;SNCF;46.5747975;5.9512119;2;4;102;0;0
SNCF00637;Sainte-Colombe;SNCF;46.879207;6.2659748;3;1;102;0;0
SNCF00646;Louhans;SNCF;46.6309;5.2174853;4;3;102;0;0
SNCF00655;Fontaines - Mercurey;SNCF;46.8512109;4.7750693;5;1;102;0;0
SNCF00656;Chagny;SNCF;46.907269;4.749682;6;4;102;0;0
SNCF00657;Meursault;SNCF;46.9690497;4.7954444;7;0;102;0;0
SNCF00668;Tonnerre;SNCF;47.85938;3.97355;0;3;102;0;0
SNCF00669;Nuits sous Ravières;SNCF;47.7291142;4.211186;1;4;102;0;0
SNCF00672;Thenissey;SNCF;47.4947945;4.6221929;2;3;102;0;0
SNCF00678;Chaugey;SNCF;47.0872036;5.2551914;3;2;102;0;0
SNCF00683;Lantenay;SNCF;47.3351085;4.860963;4;7;102;0;0
SNCF00685;Neuilly-lès-Dijon;SNCF;47.2815829;5.1111983;5;6;102;0;0
SNCF00689;Coulanges-sur-Yonne;SNCF;47.5270546;3.5472388;6;1;102;0;0
SNCF00690;Clamecy;SNCF;47.4666984;3.5207672;7;6;102;0;0
SNCF00693;Luzy;SNCF;46.7940793;3.9693245;0;4;102;0;0
SNCF00694;Cercy-la-Tour;SNCF;46.8578816;3.6452029;1;6;102;0;0
SNCF00696;Béard;SNCF;46.8652207;3.3179944;2;7;102;0;0
SNCF00706;Chantenay-Saint-Imbert;SNCF;46.7283203;3.1720842;4;2;102;0;0
SNCF00710;Pougues-les-Eaux;SNCF;47.0767837;3.0940304;5;0;102;0;0
SNCF00711;Tronsanges;SNCF;47.113029;3.0541532;6;0;102;0;0
SNCF00718;Nevers;SNCF;46.987282;3.150743;7;5;102;0;0
SNCF00720;Saint-Agnan;SNCF;46.5020038;3.8788002;0;3;102;0;0
SNCF00726;Ciry-le-Noble;SNCF;46.6040913;4.2997146;1;6;102;0;0
SNCF00727;Galuzot;SNCF;46.6421069;4.3300578;2;1;102;0;0
SNCF00738;Cheilly-lès-Maranges;SNCF;46.8924768;4.6758424;3;7;102;0;0
SNCF00741;Marmagne sous Creusot;SNCF;46.8334607;4.3601911;4;1;102;0;0
SNCF00747;Le Creusot;SNCF;46.807815;4.4304403;5;7;102;0;0
SNCF00749;Vauzelles;SNCF;47.0013565;3.1342094;6;7;102;0;0
SNCF00750;Garchizy;SNCF;47.0429987;3.0858769;7;2;102;0;0
SNCF00768;Sermizelles - Vézelay;SNCF;47.5289068;3.7928695;1;6;102;0;0
SNCF00770;Arcy-sur-Cure;SNCF;47.6008461;3.7668885;2;7;102;0;0
SNCF00771;Lucy-sur-Cure - Bessy;SNCF;47.6281383;3.7458789;3;0;102;0;0
SNCF00778;Auxerre Saint-Gervais;SNCF;47.797645;3.585140;4;1;102;0;0
411467;Joigny;SNCF;47.9734303157;3.39286472634;0;6;13;104;0
411455;Étigny - Véron;SNCF;48.1376108053;3.28974196062;4;0;13;104;0
411458;Pont-sur-Yonne;SNCF;48.2863911796;3.20189382787;7;5;13;104;0
411452;Sens;SNCF;48.1984174943;3.26732002874;2;6;13;104;0
SNCF00500;Crêches-sur-Saône;SNCF;46.2461762;4.7840233;2;3;102;0;0
SNCF00597;Mouchard;SNCF;46.976911;5.799644;3;6;102;0;0
SNCF00603;Étalans;SNCF;47.155884;6.2706173;4;3;102;0;0
SNCF00610;Novillars;SNCF;47.2839618;6.1327011;5;6;102;0;0
SNCF00627;Montferrand - Thoraise;SNCF;47.1847414;5.9074815;6;4;102;0;0
SNCF00630;Besançon Viotte;SNCF;47.247019;6.022003;7;6;102;0;0
SNCF00632;Morbier;SNCF;46.5392164;6.0176446;0;7;102;0;0
SNCF00635;La Chaux-des-Crotenay;SNCF;46.6545926;5.9438595;1;6;102;0;0
SNCF00638;La Rivière;SNCF;46.8701507;6.2133331;2;4;102;0;0
SNCF00640;Andelot;SNCF;46.8594671;5.923584;3;2;102;0;0
SNCF00641;Pontarlier;SNCF;46.900944;6.353524;4;6;102;0;0
SNCF00644;Saint-Julien - Clénay;SNCF;47.4060132;5.1281864;5;2;102;0;0
SNCF00645;Ruffey;SNCF;47.370587;5.079358;6;4;102;0;0
SNCF00648;Seurre;SNCF;46.9964114;5.1513121;7;5;102;0;0
SNCF00649;Pagny;SNCF;47.0462492;5.2010538;0;5;102;0;0
SNCF00652;Aiserey;SNCF;47.170501;5.1582447;1;0;102;0;0
SNCF00659;Corgoloin;SNCF;47.0841982;4.9171231;2;3;102;0;0
SNCF00660;Nuits-Saint-Georges;SNCF;47.130545;4.956204;3;6;102;0;0
SNCF00662;Gevrey-Chambertin;SNCF;47.2274694;4.999058;4;5;102;0;0
SNCF00663;Dole;SNCF;47.096084;5.488105;5;1;102;0;0
SNCF00665;Villers-les-Pots;SNCF;47.2066023;5.3478716;6;1;102;0;0
SNCF00666;Collonges;SNCF;47.2212533;5.2653478;7;0;102;0;0
SNCF00670;Montbard;SNCF;47.618747;4.336160;0;3;102;0;0
SNCF00671;Les Laumes Alésia;SNCF;47.543054;4.462602;1;2;102;0;0
SNCF00673;Verrey;SNCF;47.4385905;4.6700223;2;0;102;0;0
SNCF00682;Velars;SNCF;47.3265197;4.9274603;3;1;102;0;0
SNCF00686;Rully;SNCF;46.8804303;4.761033;4;1;102;0;0
SNCF00697;Imphy;SNCF;46.9333537;3.2597113;5;2;102;0;0
SNCF00708;Saincaize;SNCF;46.9314165;3.0718704;7;0;102;0;0
SNCF00713;Mesves - Bulcy;SNCF;47.2420755;3.0065175;0;6;102;0;0
SNCF00715;Tracy Sancerre;SNCF;47.3376398;2.8804164;1;7;102;0;0
SNCF00723;Digoin;SNCF;46.4851604;3.9876537;2;0;102;0;0
SNCF00724;Paray-le-Monial;SNCF;46.447312;4.113744;3;2;102;0;0
SNCF00729;Blanzy;SNCF;46.694064;4.3913585;4;2;102;0;0
SNCF00739;Saint-Léger-sur-Dheune;SNCF;46.8484526;4.6286039;5;3;102;0;0
SNCF00745;Étang;SNCF;46.8679082;4.1838415;6;3;102;0;0
SNCF00767;Avallon;SNCF;47.4957553;3.9124463;0;7;102;0;0
SNCF00772;Vermenton;SNCF;47.6605943;3.7320212;1;2;102;0;0
SNCF00779;Monéteau - Gurgy;SNCF;47.8507856;3.5798071;2;5;102;0;0
411476;Villeneuve-sur-Yonne;SNCF;48.0851844953;3.28625649812;4;0;13;104;0
SNCF03090;Labergement-Sainte-Marie;SNCF;46.77632;6.28011;6;1;102;0;0
SNCF03095;Morvillars;SNCF;47.54952;6.93511;7;1;102;0;0
SNCF00664;Auxonne;SNCF;47.192663;5.377370;5;4;102;0;0
SNCF00674;Blaisy-Bas;SNCF;47.3734427;4.7410755;6;0;102;0;0
SNCF00680;Ouges;SNCF;47.2559157;5.0727895;7;4;102;0;0
SNCF00684;Bretigny - Norges;SNCF;47.390044;5.1105838;0;1;102;0;0
SNCF00687;Ecole-Valentin;SNCF;47.2749834;5.9944745;1;7;102;0;0
SNCF00692;Corbigny;SNCF;47.254807;3.6773226;2;5;102;0;0
SNCF00719;Gilly-sur-Loire;SNCF;46.5370137;3.7821607;4;3;102;0;0
SNCF00722;La Clayette - Baudemont;SNCF;46.2881469;4.2984195;5;4;102;0;0
SNCF00725;Génelard;SNCF;46.5812177;4.2379965;6;1;102;0;0
SNCF00730;Brion - Laizy;SNCF;46.9085776;4.2069898;7;4;102;0;0
SNCF00746;Le Creusot - Montceau-les-Mines - Montchanin TGV;SNCF;46.765343;4.499513;0;3;102;0;0
SNCF00766;Mailly-la-Ville;SNCF;47.6041692;3.6751472;2;1;102;0;0
SNCF00775;Vincelles;SNCF;47.7042304;3.6284728;3;4;102;0;0
SNCF00777;Augy Vaux;SNCF;47.7663393;3.6111818;4;5;102;0;0
SNCF00782;Saint-Florentin - Vergigny;SNCF;47.981058;3.731036;5;7;102;0;0
411464;Villeneuve-la-Guyard;SNCF;48.3426136806;3.07174645407;0;4;13;104;0
SNCF02760;Chèvremont;SNCF;47.6216292;6.9214733;2;4;102;0;0
SNCF02761;Trois Chênes;SNCF;47.6480822;6.8462281;3;7;102;0;0
